…
``` r
my_dw <- "c:\\my_datawarehouse.db"
con <- dbConnect(SQLite(), my_dw)
```

We can now load some data in, let’s use a subset of the data from the
`ae_attendances` dataset from `{NHSRdatasets}`.

``` r
ae_df <- filter(ae_attendances, period < ymd(20180401))
ae_df
```

    ## # A tibble: 8,393 x 6
    ##    period     org_code type  attendances breaches admissions
    ##    <date>     <fct>    <fct>       <dbl>    <dbl>      <dbl>
    ##  1 2017-03-01 RF4      1           21289     2879       5060
    ##  2 2017-03-01 RF4      2             813       22          0
    ##  3 2017-03-01 RF4      other        2850        6          0
    ##  4 2017-03-01 R1H      1           30210     5902       6943
    ##  5 2017-03-01 R1H      2             807       11          0
    ##  6 2017-03-01 R1H      other       11352      136          0
    ##  7 2017-03-01 AD913    other        4381        2          0
    ##  8 2017-03-01 RYX      other       19562      258          0
    ##  9 2017-03-01 RQM      1           17414     2030       3597
    ## 10 2017-03-01 RQM      other        7817       86          0
    ## # ... with 8,383 more rows
…
